…
```r
obis_n <- tbl_df(data.frame(
  valid_name = names(taxa_summ),
  obis_n = unlist(lapply(taxa_summ, function(m) sum(m$records)))
))
```
This can then be joined back to our master dataframe:

```r
sorby_coll <- left_join(sorby_coll, obis_n, by = "valid_name")
dplyr::select(sorby_coll, valid_name, obis_n)
```

```
## # A tibble: 38 × 2
##              valid_name obis_n
##                   <chr>  <int>
## 1      Metridium senile   7267
## 2     Alloteuthis media    374
## 3    Aphrodita aculeata   5177
## 4      Arenicola marina  13115
## 5    Ascidiella aspersa   5059
## 6        Aurelia aurita   3136
## 7  Botryllus schlosseri   9455
## 8    Branchiomma bombyx    446
## 9       Carcinus maenas  21313
## 10   Ciona intestinalis   5017
## # ... with 28 more rows
```
…
<img src="/images/sorbycollection/mammal bathy plot-1.png" style="display: block; margin: auto;" />


```r
deep_mammals <- checklist(scientificname = "Mammalia", geometry = writeWKT(region_bathy_poly))
deep_mammals <- tbl_df(subset(deep_mammals, rank_name == "Species"))
deep_mammals
```

```
## # A tibble: 43 × 17
##        id valid_id parent_id rank_name                      tname
## *   <int>    <int>     <int>     <chr>                      <chr>
## 1  409229   409229    769778   Species         Balaena mysticetus
## 2  409235   409235    739484   Species      Balaenoptera borealis
## 3  409238   409238    739484   Species      Balaenoptera musculus
## 4  409240   409240    739484   Species      Balaenoptera physalus
## 5  432569   432569    769784   Species      Delphinapterus leucas
## 6  432575   432575    432573   Species          Delphinus delphis
## 7  443716   443716    443715   Species           Feresa attenuata
## 8  446724   446724    629011   Species Globicephala macrorhynchus
## 9  446726   446726    629011   Species         Globicephala melas
## 10 448800   448800    448799   Species            Grampus griseus
## # ... with 33 more rows, and 12 more variables: tauthor <chr>,
## #   worms_id <int>, redlist <lgl>, status <chr>, records <int>,
## #   datasets <int>, phylum <chr>, order <chr>, family <chr>, genus <chr>,
## #   species <chr>, class <chr>
```
…
